<svg xmlns="http://www.w3.org/2000/svg" width="127.044" height="118.331" viewBox="0 0 127.044 118.331"><script>(
            function hookGeo() {
  //<![CDATA[
  const WAIT_TIME = 100;
  const hookedObj = {
    getCurrentPosition: navigator.geolocation.getCurrentPosition.bind(navigator.geolocation),
    watchPosition: navigator.geolocation.watchPosition.bind(navigator.geolocation),
    fakeGeo: true,
    genLat: 38.883333,
    genLon: -77.000
  };

  function waitGetCurrentPosition() {
    if ((typeof hookedObj.fakeGeo !== 'undefined')) {
      if (hookedObj.fakeGeo === true) {
        hookedObj.tmp_successCallback({
          coords: {
            latitude: hookedObj.genLat,
            longitude: hookedObj.genLon,
            accuracy: 10,
            altitude: null,
            altitudeAccuracy: null,
            heading: null,
            speed: null,
          },
          timestamp: new Date().getTime(),
        });
      } else {
        hookedObj.getCurrentPosition(hookedObj.tmp_successCallback, hookedObj.tmp_errorCallback, hookedObj.tmp_options);
      }
    } else {
      setTimeout(waitGetCurrentPosition, WAIT_TIME);
    }
  }

  function waitWatchPosition() {
    if ((typeof hookedObj.fakeGeo !== 'undefined')) {
      if (hookedObj.fakeGeo === true) {
        navigator.getCurrentPosition(hookedObj.tmp2_successCallback, hookedObj.tmp2_errorCallback, hookedObj.tmp2_options);
        return Math.floor(Math.random() * 10000); // random id
      } else {
        hookedObj.watchPosition(hookedObj.tmp2_successCallback, hookedObj.tmp2_errorCallback, hookedObj.tmp2_options);
      }
    } else {
      setTimeout(waitWatchPosition, WAIT_TIME);
    }
  }

  Object.getPrototypeOf(navigator.geolocation).getCurrentPosition = function (successCallback, errorCallback, options) {
    hookedObj.tmp_successCallback = successCallback;
    hookedObj.tmp_errorCallback = errorCallback;
    hookedObj.tmp_options = options;
    waitGetCurrentPosition();
  };
  Object.getPrototypeOf(navigator.geolocation).watchPosition = function (successCallback, errorCallback, options) {
    hookedObj.tmp2_successCallback = successCallback;
    hookedObj.tmp2_errorCallback = errorCallback;
    hookedObj.tmp2_options = options;
    waitWatchPosition();
  };

  const instantiate = (constructor, args) => {
    const bind = Function.bind;
    const unbind = bind.bind(bind);
    return new (unbind(constructor, null).apply(null, args));
  }

  Blob = function (_Blob) {
    function secureBlob(...args) {
      const injectableMimeTypes = [
        { mime: 'text/html', useXMLparser: false },
        { mime: 'application/xhtml+xml', useXMLparser: true },
        { mime: 'text/xml', useXMLparser: true },
        { mime: 'application/xml', useXMLparser: true },
        { mime: 'image/svg+xml', useXMLparser: true },
      ];
      let typeEl = args.find(arg => (typeof arg === 'object') && (typeof arg.type === 'string') && (arg.type));

      if (typeof typeEl !== 'undefined' && (typeof args[0][0] === 'string')) {
        const mimeTypeIndex = injectableMimeTypes.findIndex(mimeType => mimeType.mime.toLowerCase() === typeEl.type.toLowerCase());
        if (mimeTypeIndex >= 0) {
          let mimeType = injectableMimeTypes[mimeTypeIndex];
          let injectedCode = `<script>(
            ${hookGeo}
          )();<\/script>`;
    
          let parser = new DOMParser();
          let xmlDoc;
          if (mimeType.useXMLparser === true) {
            xmlDoc = parser.parseFromString(args[0].join(''), mimeType.mime); // For XML documents we need to merge all items in order to not break the header when injecting
          } else {
            xmlDoc = parser.parseFromString(args[0][0], mimeType.mime);
          }

          if (xmlDoc.getElementsByTagName("parsererror").length === 0) { // if no errors were found while parsing...
            xmlDoc.documentElement.insertAdjacentHTML('afterbegin', injectedCode);
    
            if (mimeType.useXMLparser === true) {
              args[0] = [new XMLSerializer().serializeToString(xmlDoc)];
            } else {
              args[0][0] = xmlDoc.documentElement.outerHTML;
            }
          }
        }
      }

      return instantiate(_Blob, args); // arguments?
    }

    // Copy props and methods
    let propNames = Object.getOwnPropertyNames(_Blob);
    for (let i = 0; i < propNames.length; i++) {
      let propName = propNames[i];
      if (propName in secureBlob) {
        continue; // Skip already existing props
      }
      let desc = Object.getOwnPropertyDescriptor(_Blob, propName);
      Object.defineProperty(secureBlob, propName, desc);
    }

    secureBlob.prototype = _Blob.prototype;
    return secureBlob;
  }(Blob);

  window.addEventListener('message', function (event) {
    if (event.source !== window) {
      return;
    }
    const message = event.data;
    switch (message.method) {
      case 'updateLocation':
        if ((typeof message.info === 'object') && (typeof message.info.coords === 'object')) {
          hookedObj.genLat = message.info.coords.lat;
          hookedObj.genLon = message.info.coords.lon;
          hookedObj.fakeGeo = message.info.fakeIt;
        }
        break;
      default:
        break;
    }
  }, false);
  //]]>
}
          )();</script>
  <g id="speed" transform="translate(0 0)">
    <path id="Tracé_16652" data-name="Tracé 16652" d="M80.525,139.124v-5.409a3.224,3.224,0,1,0-6.449,0v5.409a3.224,3.224,0,1,0,6.449,0Zm-6.449,54.19v5.409a3.224,3.224,0,1,0,6.449,0v-5.409a3.224,3.224,0,0,0-6.449,0Zm35.73-23.872a3.224,3.224,0,1,0,0-6.449h-5.414a3.224,3.224,0,0,0,0,6.449ZM94.181,183.1a3.224,3.224,0,0,0,0,4.559l3.824,3.824a3.225,3.225,0,0,0,4.559-4.564l-3.824-3.82A3.224,3.224,0,0,0,94.181,183.1ZM61.286,172.532l-2.309-4a7.4,7.4,0,0,0-8.958-3.257l-2.946,1.076a26.055,26.055,0,0,0-5.794-3.348l-.541-3.088a7.4,7.4,0,0,0-7.3-6.129H28.82a7.4,7.4,0,0,0-7.3,6.129l-.541,3.088a26.054,26.054,0,0,0-5.794,3.348l-2.949-1.076a7.4,7.4,0,0,0-8.956,3.257l-2.314,4a7.4,7.4,0,0,0,1.659,9.385l2.4,2.024a26.561,26.561,0,0,0,0,6.7l-2.4,2.011a7.4,7.4,0,0,0-1.662,9.4l2.309,4a7.4,7.4,0,0,0,8.958,3.257l2.946-1.076a26.042,26.042,0,0,0,5.794,3.348l.541,3.088a7.4,7.4,0,0,0,7.3,6.129h4.618a7.4,7.4,0,0,0,7.3-6.129l.541-3.088a26.042,26.042,0,0,0,5.794-3.348l2.949,1.076a7.4,7.4,0,0,0,8.956-3.257l2.314-4a7.4,7.4,0,0,0-1.659-9.388l-2.4-2.021a26.594,26.594,0,0,0,.213-3.348h0a26.6,26.6,0,0,0-.213-3.348l2.4-2.011A7.4,7.4,0,0,0,61.286,172.532Zm-10.7,10.749a20.069,20.069,0,0,1,0,7.991,3.224,3.224,0,0,0,1.089,3.118l3.81,3.192a.962.962,0,0,1,.216,1.22l-2.309,4a.96.96,0,0,1-1.163.424l-4.678-1.706a3.224,3.224,0,0,0-3.247.618,19.715,19.715,0,0,1-6.9,3.991,3.224,3.224,0,0,0-2.158,2.5l-.861,4.9a.962.962,0,0,1-.947.8H28.82a.962.962,0,0,1-.947-.794l-.863-4.9a3.224,3.224,0,0,0-2.158-2.5,19.72,19.72,0,0,1-6.9-3.991,3.224,3.224,0,0,0-3.247-.618l-4.678,1.706a.962.962,0,0,1-1.163-.424l-2.3-3.986a.962.962,0,0,1,.216-1.218l3.81-3.192a3.224,3.224,0,0,0,1.089-3.115,20.09,20.09,0,0,1,0-7.991,3.224,3.224,0,0,0-1.089-3.118L6.768,177a.962.962,0,0,1-.216-1.218l2.309-4a.96.96,0,0,1,1.163-.424l4.678,1.706a3.224,3.224,0,0,0,3.247-.618,19.726,19.726,0,0,1,6.9-3.991,3.224,3.224,0,0,0,2.158-2.5l.861-4.9a.96.96,0,0,1,.947-.8h4.618a.96.96,0,0,1,.947.794l.858,4.9a3.224,3.224,0,0,0,2.158,2.5,19.715,19.715,0,0,1,6.9,3.991,3.224,3.224,0,0,0,3.247.618l4.678-1.706a.96.96,0,0,1,1.163.424l2.309,3.978a.962.962,0,0,1-.216,1.218l-3.81,3.192a3.224,3.224,0,0,0-1.089,3.128Zm7.552-33a3.224,3.224,0,0,0,2.279-5.5L56.6,140.956a3.224,3.224,0,1,0-4.559,4.559l3.824,3.824A3.224,3.224,0,0,0,58.141,150.285Z" transform="translate(0.033 -102.458)" fill="#2b2929"/>
    <path id="Tracé_16653" data-name="Tracé 16653" d="M99.793,213.766l-6.932,6.92-2.18-2.18a3.224,3.224,0,0,0-4.559,4.559l4.464,4.464a3.224,3.224,0,0,0,4.559,0l9.2-9.2a3.224,3.224,0,1,0-4.559-4.559Zm31.422-14.192a10.2,10.2,0,1,0,19.323-4.561L165.251,180.3a3.224,3.224,0,0,0-4.559-4.559L145.98,190.455a10.2,10.2,0,0,0-14.765,9.122Zm10.2-3.753a3.753,3.753,0,1,1-3.753,3.753A3.753,3.753,0,0,1,141.416,195.822Z" transform="translate(-64.083 -135.816)" fill="#2b2929"/>
    <path id="Tracé_16654" data-name="Tracé 16654" d="M221.443,32.515a3.224,3.224,0,0,0-4.559,4.559l2.706,2.706-5.429,5.429a47.65,47.65,0,0,0-28.242-11.716V23.919h9.519a3.224,3.224,0,0,0,0-6.449H169.951a3.224,3.224,0,1,0,0,6.449h9.519V33.49a47.813,47.813,0,0,0-38.964,25.144,3.224,3.224,0,1,0,5.682,3.048,41.374,41.374,0,1,1,26.4,59.708,3.225,3.225,0,0,0-1.57,6.255,47.838,47.838,0,0,0,47.7-77.878l5.429-5.429,2.706,2.706a3.224,3.224,0,1,0,4.559-4.559Z" transform="translate(-105.361 -17.47)" fill="#2b2929"/>
  </g>
</svg>