<?xml version="1.0" encoding="utf-8"?>
<!-- Generator: Adobe Illustrator 26.5.0, SVG Export Plug-In . SVG Version: 6.00 Build 0)  -->
<svg version="1.1" id="Calque_1" xmlns="http://www.w3.org/2000/svg" xmlns:xlink="http://www.w3.org/1999/xlink" x="0px" y="0px"
	 viewBox="0 0 595.3 139.1" style="enable-background:new 0 0 595.3 139.1;" xml:space="preserve">
<style type="text/css">
	.st0{fill:#E56816;}
	.st1{fill:#020203;}
</style>
<g>
	<g>
		<path class="st0" d="M217.6,72.1c0,17-13.7,30.7-30.6,30.8h-25.6c0,0,0,0,0,0l0-24.4v-0.7c0.2-5,4.3-9,9.4-9l16.1,0
			c1.8,0,3.4,1.3,3.6,3.1c0.2,2-1.4,3.7-3.4,3.7h-11.5c-3.8,0.4-6.9,4.2-7.2,9.5c0,0.3,0,0.5,0,0.8c0,0.3,0,0.5,0,0.8
			c0.2,4.3,2.3,7.4,5.2,8.9c0.7,0.4,2,0.6,2.8,0.6l11,0c0.6,0,1.2,0,1.9-0.1l0,0c12.3-1.1,21.9-11.4,21.9-24
			c-0.1-13.2-11-23.8-24.2-23.8h-25.4c0,0,0,0,0,0v-4.3c0-1.4,1.1-2.5,2.5-2.5h23c0.2,0,0.3,0,0.5,0
			C204.1,41.6,217.6,55.3,217.6,72.1z"/>
		<path class="st0" d="M204.3,72.1c0,8.7-6.4,15.8-14.8,16.9c-0.8,0.1-1.5,0.2-2.3,0.2h-8.7c-1.4,0-2.5-1.1-2.5-2.5v-1.8
			c0-1.3,1-2.4,2.3-2.5c0,0,0,0,0.1,0h8.4c5.5,0,10.3-4.2,10.6-9.7c0.3-5.9-4.3-10.7-10.1-10.8h-23.4c-1.3-0.1-2.4-1.2-2.4-2.5V55
			h25.8C196.6,55,204.3,62.7,204.3,72.1z"/>
	</g>
	<g>
		<path class="st1" d="M230.6,65.9h10.4c3.7,0,6.8,1.1,9.2,3.2c2.6,2.2,3.9,5.5,3.9,9.4c0,3.8-1.4,7.2-3.9,9.4
			c-2.3,2-5.5,3.1-9.2,3.1h-10.4V65.9z M240.9,86.3c3.4,0,7.6-1.2,7.6-7.8c0-6.6-4.2-7.8-7.6-7.8H236v15.6H240.9z"/>
		<g>
			<path class="st1" d="M275.9,71.8v11.1c0,4.9-2,8.1-7.4,8.1h-2.8c-5.4,0-7.4-3.2-7.4-8.1V71.8h5.2v11.1c0,2.9,1.7,3.8,3.6,3.8h0
				c1.9,0,3.6-0.9,3.6-3.8V71.8H275.9z"/>
		</g>
		<path class="st1" d="M280,81.1c0-7.7,6.7-9.8,10.3-9.8c4.8,0,9.7,3.3,9.8,9.4c0,1.4-0.1,2.4-0.1,2.4h-14.9
			c0.6,3.1,4.1,3.4,5.1,3.4c2.8,0,4.3-1.5,4.8-2.2l4,2.3c-0.8,1-3.3,4.4-8.8,4.4C286.5,91,280,88.9,280,81.1z M285.2,79.4h9.4
			c-0.2-1.7-1.9-3.6-4.5-3.6C287.2,75.8,285.4,77.5,285.2,79.4z"/>
		<path class="st1" d="M316.1,70.6V91h-5.5V70.6h-7.3v-4.7h20v4.7H316.1z"/>
		<path class="st1" d="M323.4,81.1c0-5.4,4.6-9.8,10.2-9.8s10.3,4.4,10.3,9.8c0,5.5-4.7,9.8-10.3,9.8S323.4,86.6,323.4,81.1z
			 M328.4,81.1c0,3.1,2.2,5.4,5.2,5.4c2.9,0,5.2-2.3,5.2-5.4c0-3-2.3-5.3-5.2-5.3C330.7,75.8,328.4,78.2,328.4,81.1z"/>
		<path class="st1" d="M348.4,65.9h10.4c3.7,0,6.8,1.1,9.2,3.2c2.6,2.2,3.9,5.5,3.9,9.4c0,3.8-1.4,7.2-3.9,9.4
			c-2.3,2-5.5,3.1-9.2,3.1h-10.4V65.9z M358.7,86.3c3.4,0,7.6-1.2,7.6-7.8c0-6.6-4.2-7.8-7.6-7.8h-4.9v15.6H358.7z"/>
		<path class="st1" d="M390.4,88.7c-0.8,1.1-3.1,2.3-5.7,2.3c-6,0-9.5-4.4-9.5-9.8c0-5.4,3.5-9.8,9.5-9.8c2.7,0,4.8,1.1,5.7,2.4v-2
			h5.1v18.9h-5.1V88.7z M385.4,75.8c-3.3,0-5.2,2.3-5.2,5.3c0,3,2,5.3,5.2,5.3c3.2,0,5.2-2,5.2-5.3C390.6,78,388.6,75.8,385.4,75.8z
			"/>
		<path class="st1" d="M406.9,83.8c0,1,0,2.8,2.3,2.8c0.6,0,1,0,1.3-0.1v4.3c-0.6,0.1-1.6,0.1-2.3,0.1c-4,0-6.4-0.7-6.4-4.7V75.8
			h-2.3v-4.5h2.3v-5h5.1v5h3.8v4.5h-3.8V83.8z"/>
		<path class="st1" d="M428.9,88.7c-0.8,1.1-3.1,2.3-5.7,2.3c-6,0-9.5-4.4-9.5-9.8c0-5.4,3.5-9.8,9.5-9.8c2.7,0,4.8,1.1,5.7,2.4v-2
			h5.1v18.9h-5.1V88.7z M423.9,75.8c-3.3,0-5.2,2.3-5.2,5.3c0,3,2,5.3,5.2,5.3c3.2,0,5.2-2,5.2-5.3C429.1,78,427.1,75.8,423.9,75.8z
			"/>
	</g>
</g>
</svg>
