<svg xmlns="http://www.w3.org/2000/svg" width="47.747" height="52.298" viewBox="0 0 47.747 52.298">
  <g id="Groupe_16192" data-name="Groupe 16192" transform="translate(-350.437 -232.293)">
    <g id="Groupe_13130" data-name="Groupe 13130" transform="translate(350.437 232.293)">
      <path id="Tracé_8787" data-name="Tracé 8787" d="M430.071,258.441a26.108,26.108,0,0,1-25.976,26.15H382.354a.03.03,0,0,1-.03-.03l.008-20.739v-.6a7.992,7.992,0,0,1,7.985-7.687h13.647a3.007,3.007,0,0,1,3.044,2.643,2.9,2.9,0,0,1-2.892,3.168h-9.758c-3.192.32-5.891,3.565-6.122,8.067-.013.213-.018.428-.018.644s0,.433.018.645c.189,3.689,1.982,6.314,4.422,7.525a6.418,6.418,0,0,0,2.4.529h9.34q.793,0,1.586-.054h0a20.339,20.339,0,0,0-2.017-40.6h-21.61a.03.03,0,0,1-.03-.03v-3.624a2.155,2.155,0,0,1,2.155-2.155h19.53c.143,0,.287,0,.428,0A26.105,26.105,0,0,1,430.071,258.441Z" transform="translate(-382.324 -232.293)" fill="#de4f0a"/>
      <path id="Tracé_8788" data-name="Tracé 8788" d="M418.735,265.619a14.526,14.526,0,0,1-12.551,14.393,14.356,14.356,0,0,1-1.976.136h-7.38a2.126,2.126,0,0,1-2.126-2.127v-1.558a2.129,2.129,0,0,1,1.988-2.125.292.292,0,0,1,.046,0h7.106a8.9,8.9,0,0,0,8.978-8.286,8.716,8.716,0,0,0-8.6-9.146h-19.88a2.126,2.126,0,0,1-2.015-2.127v-3.685h21.895A14.527,14.527,0,0,1,418.735,265.619Z" transform="translate(-382.324 -239.471)" fill="#de4f0a"/>
    </g>
  </g>
</svg>
